{
    "schema_version": "3.0.0",
    "packages": [
        {
            "name": "scribenet-sublime-invisibles",
            "description": "A simplistic Sublime Text plugin to allow for invisible to be hidden or shown via a menu item or key binding",
            "author": "Scribe Inc.",
            "homepage": "https://gitlab.com/scribe-projects/sublime-invisibles",
            "releases": [
                {
                    "version": "0.1.4.1",
                    "url": "https://gitlab.com/scribe-projects/sublime-invisibles/-/archive/master/sublime-invisibles-master.zip",
                    "date": "2014-06-11 15:50:00",
                    "sublime_text": "*"
                }
            ]
        },
        {
            "name": "scribenet-sublime-validation",
            "description": "A simple sublime build system for validation of XML files.",
            "author": "Scribe Inc.",
            "homepage": "https://gitlab.com/scribe-projects/sublime-validation",
            "releases": [
                {
                    "version": "0.1.4",
                    "url": "https://gitlab.com/scribe-projects/sublime-validation/-/archive/master/sublime-validation-master.zip",
                    "date": "2021-09-15 14:52:00",
                    "sublime_text": "*"
                }
            ]
        },
        {
            "name": "scribenet-sublime-iterator",
            "description": "A simplistic number iterator; goodbye TextPad",
            "author": "Scribe Inc.",
            "homepage": "https://gitlab.com/scribe-projects/sublime-iterator",
            "releases": [
                {
                    "version": "0.1.4",
                    "url": "https://gitlab.com/scribe-projects/sublime-iterator/-/archive/master/sublime-iterator-master.zip",
                    "date": "2013-07-31 23:46:00",
                    "sublime_text": "*"
                }
            ]
        },
        {
            "name": "scribenet-sublime-settings",
            "description": "General setting toggles applicable to Scribe",
            "author": "Scribe Inc.",
            "homepage": "https://gitlab.com/scribe-projects/sublime-settings",
            "releases": [
                {
                    "version": "0.1.0",
                    "url": "https://gitlab.com/scribe-projects/sublime-settings/-/archive/master/sublime-settings-master.zip",
                    "date": "2014-06-12 15:40:00",
                    "sublime_text": "*"
                }
            ]
        },
        {
            "name": "scribenet-sublime-keybindings",
            "description": "Collection of useful keybindings",
            "author": "Scribe Inc.",
            "homepage": "https://gitlab.com/scribe-projects/sublime-keybindings",
            "releases": [
                {
                    "version": "0.1.3",
                    "url": "https://gitlab.com/scribe-projects/sublime-keybindings/-/archive/master/sublime-keybindings-master.zip",
                    "date": "2013-10-17 12:30:00",
                    "sublime_text": "*"
                }
            ]
        },
        {
            "name": "scribenet-sublime-encoding",
            "description": "Menu entries to show encoding, as well as convert to UTF-8",
            "author": "Scribe Inc.",
            "homepage": "https://gitlab.com/scribe-projects/sublime-encoding",
            "releases": [
                {
                    "version": "0.1.0",
                    "url": "https://gitlab.com/scribe-projects/sublime-encoding/-/archive/master/sublime-encoding-master.zip",
                    "date": "2013-09-18 13:10:00",
                    "sublime_text": "*"
                }
            ]
        },
        {
            "name": "scribenet-sublime-regex-results",
            "description": "Run all regular expressions from select Scribe documentation pages",
            "author": "Scribe Inc.",
            "homepage": "https://gitlab.com/scribe-projects/sublime-regex-results",
            "releases": [
                {
                    "version": "0.2.0",
                    "url": "https://gitlab.com/scribe-projects/sublime-regex-results/-/archive/main/sublime-regex-results-main.zip",
                    "date": "2024-04-11 15:30:00",
                    "sublime_text": "*"
                }
            ]
        }
    ]
}
